SPOOKY Data Analysis
…
Contrary to Shelleys, Lovecrafts terms describe or induce negative states of mind like horror, fear, strange, and terrible.

The three distinct patterns that surfaced from the word frequency analysis motivate me to conduct sentiment analysis, in order to find out if these themes indeed map back to the entire narrative.

3. Sentiment Analysis with Words

I look beyond the mere frequency of terms to analyze sentiment associated with each authors text. Out of the three sentiment lexicons (nrc, bing, and AFINN), I will be using AFINN. AFINN assigns words with a score between -5 and 5, with -5 at the negative end of the spectrum and 5 at the positive end.

I will begin by following up on my findings on Lovecraft - his proclivity for creating negative, eerie moods. Based on the results from the word frequency analysis, I expect Lovecraft to have a lower AFINN score than Poe or Shelley.

get_sentiments("afinn")

## # A tibble: 2,476 x 2
##          word score
##         <chr> <int>
##  1    abandon    -2
##  2  abandoned    -2
##  3   abandons    -2
##  4   abducted    -2
##  5  abduction    -2
##  6 abductions    -2
##  7      abhor    -3
##  8   abhorred    -3
##  9  abhorrent    -3
## 10     abhors    -3
## # ... with 2,466 more rows
…
#split into word1 and word 2
bigrams_sep <- spooky_bigrams %>% separate(bigram, c("word1", "word2"), sep = " ")

#focus on the following negating words for a second look at my original sentiment analysis
negation_words <- c("not", "no", "never", "can't", "don't")

negated_words <- bigrams_sep %>%
  filter(word1 %in% negation_words) %>%
  inner_join(get_sentiments("afinn"), by = c(word2 = "word")) %>%
  count(word1, word2, score, sort = TRUE) %>%
  ungroup()

negated_words

## # A tibble: 286 x 4
##    word1   word2 score     n
##    <chr>   <chr> <int> <int>
##  1    no   doubt    -1    60
##  2   not    help     2    29
##  3   not    like     2    26
##  4   not    fail    -2    23
##  5   not    wish     1    20
##  6   not     die    -3    15
##  7 never  forget    -1     9
##  8   not pretend    -1     9
##  9    no    good     3     8
## 10    no    hope     2     8
## # ... with 276 more rows
…
